/* XPM */
static char * colours_xpm[] = {
"32 16 272 2",
"  	c None",
". 	c #43FF00",
"+ 	c #61FF00",
"@ 	c #7FFF00",
"# 	c #9DFF00",
"$ 	c #BBFF00",
"% 	c #D6FF00",
"& 	c #01FF00",
"* 	c #1CFF00",
"= 	c #3BFF00",
"- 	c #5CFF00",
"; 	c #A2FF00",
"> 	c #C3FF00",
", 	c #E2FF00",
"' 	c #FDFF00",
") 	c #FFE700",
"! 	c #007F00",
"~ 	c #057C00",
"{ 	c #FF00FF",
"] 	c #00FF29",
"^ 	c #00FF0F",
"/ 	c #17FF0A",
"( 	c #44FF18",
"_ 	c #6CFF21",
": 	c #91FF24",
"< 	c #B2FF21",
"[ 	c #D1FF18",
"} 	c #F0FF0A",
"| 	c #FFEF00",
"1 	c #FFD500",
"2 	c #FFBF00",
"3 	c #017E00",
"4 	c #FC02FC",
"5 	c #00FF55",
"6 	c #00FF3F",
"7 	c #15FF36",
"8 	c #2AFF2D",
"9 	c #54FF3A",
"0 	c #7EFF45",
"a 	c #A3FF48",
"b 	c #C4FF45",
"c 	c #E3FF3A",
"d 	c #FFFA2A",
"e 	c #FFDD15",
"f 	c #FFA900",
"g 	c #FF9700",
"h 	c #027D00",
"i 	c #624E00",
"j 	c #5D6600",
"k 	c #02DA00",
"l 	c #00FF00",
"m 	c #9F5F9F",
"n 	c #FD01FD",
"o 	c #00FF6F",
"p 	c #15FF67",
"q 	c #30FF63",
"r 	c #48FF5C",
"s 	c #64FF5C",
"t 	c #8FFF68",
"u 	c #B5FF6D",
"v 	c #D6FF68",
"w 	c #F5FF5C",
"x 	c #FFE948",
"y 	c #FFCB30",
"z 	c #FFAB15",
"A 	c #FF8F00",
"B 	c #FF7E00",
"C 	c #AC2800",
"D 	c #C01F00",
"E 	c #D91200",
"F 	c #F90200",
"G 	c #996301",
"H 	c #03FA00",
"I 	c #59A559",
"J 	c #E41AE4",
"K 	c #CB33CB",
"L 	c #00FF9C",
"M 	c #0AFF92",
"N 	c #2AFF90",
"O 	c #48FF8E",
"P 	c #64FF8A",
"Q 	c #7BFF82",
"R 	c #A1FF8B",
"S 	c #C7FF91",
"T 	c #E8FF8B",
"U 	c #FFF67B",
"V 	c #FFD864",
"W 	c #FFB748",
"X 	c #FF972A",
"Y 	c #FF750A",
"Z 	c #FF6200",
"` 	c #FF4000",
" .	c #FF0000",
"..	c #ED0011",
"+.	c #6C1779",
"@.	c #03A357",
"#.	c #00F608",
"$.	c #0CF20C",
"%.	c #00FFBB",
"&.	c #18FFB7",
"*.	c #3AFFB7",
"=.	c #5CFFB6",
"-.	c #7BFFB4",
";.	c #97FFB0",
">.	c #B1FFAD",
",.	c #DAFFB6",
"'.	c #FAFFAD",
").	c #FFE497",
"!.	c #FFC57B",
"~.	c #FFA35C",
"{.	c #FF813A",
"].	c #FF5E18",
"^.	c #FF4300",
"/.	c #FF1200",
"(.	c #FB0003",
"_.	c #83007B",
":.	c #021BE0",
"<.	c #00C33B",
"[.	c #00FFDC",
"}.	c #21FFDB",
"|.	c #45FFDB",
"1.	c #68FFDB",
"2.	c #8BFFDB",
"3.	c #ADFFDA",
"4.	c #CBFFD7",
"5.	c #ECFFDA",
"6.	c #FFF1CB",
"7.	c #FFD1AD",
"8.	c #FFAE8B",
"9.	c #FF8A68",
"0.	c #FF6845",
"a.	c #FF4321",
"b.	c #FF2100",
"c.	c #FF0500",
"d.	c #D50029",
"e.	c #1A00E2",
"f.	c #0011E3",
"g.	c #00C522",
"h.	c #00D116",
"i.	c #00E00F",
"j.	c #00FA02",
"k.	c #00FFFF",
"l.	c #24FFFF",
"m.	c #48FFFF",
"n.	c #6DFFFF",
"o.	c #91FFFF",
"p.	c #B6FFFF",
"q.	c #DAFFFF",
"r.	c #FFFFFF",
"s.	c #FFDADA",
"t.	c #FFB6B6",
"u.	c #FF9191",
"v.	c #FF6D6D",
"w.	c #FF4848",
"x.	c #FF2424",
"y.	c #F80006",
"z.	c #5A00A4",
"A.	c #0100F4",
"B.	c #0001BE",
"C.	c #000289",
"D.	c #001176",
"E.	c #002A6A",
"F.	c #008B39",
"G.	c #00DCFF",
"H.	c #21DBFF",
"I.	c #45DBFF",
"J.	c #68DBFF",
"K.	c #8BDBFF",
"L.	c #ADDAFF",
"M.	c #CBD7FF",
"N.	c #ECDAFF",
"O.	c #FFCBF1",
"P.	c #FFADD1",
"Q.	c #FF8BAE",
"R.	c #FF688A",
"S.	c #FF4568",
"T.	c #FF2143",
"U.	c #FF0020",
"V.	c #FF0015",
"W.	c #1600E8",
"X.	c #0000EF",
"Y.	c #000097",
"Z.	c #00007F",
"`.	c #00007E",
" +	c #080F77",
".+	c #00BBFF",
"++	c #18B7FF",
"@+	c #3AB7FF",
"#+	c #5CB6FF",
"$+	c #7BB4FF",
"%+	c #97B0FF",
"&+	c #B1ADFF",
"*+	c #DAB6FF",
"=+	c #FAADFF",
"-+	c #FF97E4",
";+	c #FF7BC5",
">+	c #FF5CA3",
",+	c #FF3A81",
"'+	c #FF185E",
")+	c #FF0042",
"!+	c #FF0037",
"~+	c #AB0053",
"{+	c #0300FB",
"]+	c #0000FC",
"^+	c #0000CC",
"/+	c #000085",
"(+	c #07087B",
"_+	c #43445D",
":+	c #FFFF00",
"<+	c #0A92FF",
"[+	c #2A90FF",
"}+	c #488EFF",
"|+	c #648AFF",
"1+	c #7B82FF",
"2+	c #A18BFF",
"3+	c #C791FF",
"4+	c #E88BFF",
"5+	c #FF7BF6",
"6+	c #FF64D8",
"7+	c #FF48B7",
"8+	c #FF2A97",
"9+	c #FF0A75",
"0+	c #FF0062",
"a+	c #0000FF",
"b+	c #0000FB",
"c+	c #A1A12E",
"d+	c #D9D912",
"e+	c #F1F106",
"f+	c #FCFC01",
"g+	c #006FFF",
"h+	c #1567FF",
"i+	c #3063FF",
"j+	c #485CFF",
"k+	c #645CFF",
"l+	c #8F68FF",
"m+	c #B56DFF",
"n+	c #D668FF",
"o+	c #F55CFF",
"p+	c #FF48E9",
"q+	c #FF30CB",
"r+	c #FF15AB",
"s+	c #FF008F",
"t+	c #FF007E",
"u+	c #003FFF",
"v+	c #1536FF",
"w+	c #2A2DFF",
"x+	c #543AFF",
"y+	c #7E45FF",
"z+	c #A348FF",
"A+	c #C445FF",
"B+	c #E33AFF",
"C+	c #FF2AFA",
"D+	c #FF15DD",
"E+	c #FF00BF",
"F+	c #FF00A9",
"G+	c #000088",
"H+	c #000FFF",
"I+	c #170AFF",
"J+	c #4418FF",
"K+	c #6C21FF",
"L+	c #9124FF",
"M+	c #B221FF",
"N+	c #D118FF",
"O+	c #F00AFF",
"P+	c #FF00EF",
"Q+	c #FF00D5",
"R+	c #3B00FF",
"S+	c #5C00FF",
"T+	c #7F00FF",
"U+	c #A200FF",
"V+	c #C300FF",
"W+	c #E200FF",
"          . + @ # $ %                                           ",
"      & * = - @ ; > , ' )       ! ! ! ! ~               { {     ",
"    ] ^ / ( _ : < [ } | 1 2     ! !     3             4 { {     ",
"  5 6 7 8 9 0 a b c d e 2 f g   ! h     i j k     l m n { {     ",
"  o p q r s t u v w x y z A B     C D E F G H   l l I J K       ",
"L M N O P Q R S T U V W X Y Z `    . . ...+.@.#.l l $.          ",
"%.&.*.=.-.;.>.,.'.).!.~.{.].^./.   . .(._.:.<.l l l l l l       ",
"[.}.|.1.2.3.4.5.6.7.8.9.0.a.b.c. .   .d.e.f.  g.h.i.j.l         ",
"k.l.m.n.o.p.q.r.s.t.u.v.w.x. . .   .y.z.A.B.C.  D.E.F.          ",
"G.H.I.J.K.L.M.N.O.P.Q.R.S.T.U.V.   .d.W.X.Y.Z.  `.Z. +          ",
".+++@+#+$+%+&+*+=+-+;+>+,+'+)+!+   .~+{+]+^+/+Z.`.(+_+    :+    ",
"  <+[+}+|+1+2+3+4+5+6+7+8+9+0+        a+a+b+      c+d+e+f+:+    ",
"  g+h+i+j+k+l+m+n+o+p+q+r+s+t+        a+          :+:+:+  :+    ",
"    u+v+w+x+y+z+A+B+C+D+E+F+        G+          :+:+:+:+:+      ",
"      H+I+J+K+L+M+N+O+P+Q+        Z.Z.Z.        :+              ",
"          R+S+T+U+V+W+              Z.Z.                        "};
