/* XPM */
static char * move_box_xpm[] = {
"48 48 256 2",
"  	c None",
". 	c #C8C8C8",
"+ 	c #949494",
"@ 	c #AAAAAA",
"# 	c #B9B9B9",
"$ 	c #818181",
"% 	c #DECF71",
"& 	c #DDBE4B",
"* 	c #DD9F25",
"= 	c #DD941B",
"- 	c #DC9118",
"; 	c #DB8F18",
"> 	c #DA8E17",
", 	c #D98E17",
"' 	c #D98C17",
") 	c #D78B16",
"! 	c #D78914",
"~ 	c #D78410",
"{ 	c #D7840F",
"] 	c #D7830E",
"^ 	c #D6810C",
"/ 	c #D5800B",
"( 	c #D27D0A",
"_ 	c #D17C0A",
": 	c #CF7A09",
"< 	c #CF6B00",
"[ 	c #AD4900",
"} 	c #CACACA",
"| 	c #A3A3A3",
"1 	c #969696",
"2 	c #C5C5C5",
"3 	c #8C8C8C",
"4 	c #B6B6B6",
"5 	c #B2B2B2",
"6 	c #6E6E6E",
"7 	c #B0B0B0",
"8 	c #8F8F8F",
"9 	c #A8A8A8",
"0 	c #9E9E9E",
"a 	c #797979",
"b 	c #ECA622",
"c 	c #E57F08",
"d 	c #DA6800",
"e 	c #D05D00",
"f 	c #C95600",
"g 	c #C55200",
"h 	c #C35000",
"i 	c #C04D00",
"j 	c #C14E00",
"k 	c #BD4A00",
"l 	c #BC4900",
"m 	c #BA4900",
"n 	c #B94700",
"o 	c #B84600",
"p 	c #B24000",
"q 	c #A93600",
"r 	c #801800",
"s 	c #C4C4C4",
"t 	c #9B9B9B",
"u 	c #A6A6A6",
"v 	c #888888",
"w 	c #B4B4B4",
"x 	c #9A9A9A",
"y 	c #666666",
"z 	c #838383",
"A 	c #686868",
"B 	c #848484",
"C 	c #7C7C7C",
"D 	c #5F5F5F",
"E 	c #9A4933",
"F 	c #984332",
"G 	c #883833",
"H 	c #843633",
"I 	c #7D3333",
"J 	c #7E3332",
"K 	c #823432",
"L 	c #813432",
"M 	c #823532",
"N 	c #7F3432",
"O 	c #7D3432",
"P 	c #7C3432",
"Q 	c #7C3332",
"R 	c #733232",
"S 	c #763232",
"T 	c #6E3333",
"U 	c #5A3333",
"V 	c #707070",
"W 	c #787878",
"X 	c #656565",
"Y 	c #8A8A8A",
"Z 	c #3E3E3E",
"` 	c #B5B5B5",
" .	c #DEDEDE",
"..	c #D2D2D2",
"+.	c #D1D1D1",
"@.	c #D8D8D8",
"#.	c #D7D7D7",
"$.	c #CCCCCC",
"%.	c #C6C6C6",
"&.	c #BFBFBF",
"*.	c #D0D0D0",
"=.	c #C7C7C7",
"-.	c #B8B8B8",
";.	c #5C5C5C",
">.	c #404040",
",.	c #3C3C3C",
"'.	c #A4A4A4",
").	c #353535",
"!.	c #DCDCDC",
"~.	c #9F9F9F",
"{.	c #BCBCBC",
"].	c #D4D4D4",
"^.	c #C1C1C1",
"/.	c #DFDFDF",
"(.	c #000000",
"_.	c #FFFFFF",
":.	c #8B8B8B",
"<.	c #7B7B7B",
"[.	c #606060",
"}.	c #999999",
"|.	c #C0C0C0",
"1.	c #6D6D6D",
"2.	c #AFAFAF",
"3.	c #F9F9F9",
"4.	c #D5D5D5",
"5.	c #E0E0E0",
"6.	c #FBFBFB",
"7.	c #F2F2F2",
"8.	c #858585",
"9.	c #A7A7A7",
"0.	c #727272",
"a.	c #B7B7B7",
"b.	c #BBBBBB",
"c.	c #767676",
"d.	c #F6F6F6",
"e.	c #BDBDBD",
"f.	c #F5F5F5",
"g.	c #7F7F7F",
"h.	c #ACACAC",
"i.	c #373737",
"j.	c #757575",
"k.	c #EBEBEB",
"l.	c #878787",
"m.	c #464646",
"n.	c #989898",
"o.	c #AEAEAE",
"p.	c #6F6F6F",
"q.	c #4A4A4A",
"r.	c #909090",
"s.	c #B1B1B1",
"t.	c #898989",
"u.	c #D0D0D1",
"v.	c #E0E0E3",
"w.	c #FBFBFD",
"x.	c #FBFDFC",
"y.	c #D6E8D8",
"z.	c #FAFBFB",
"A.	c #FEFEFE",
"B.	c #E3E3E3",
"C.	c #232323",
"D.	c #4D4D4D",
"E.	c #9D9D9D",
"F.	c #ACACD5",
"G.	c #4C4CA5",
"H.	c #3C3CAA",
"I.	c #4C4CB1",
"J.	c #5D7C97",
"K.	c #11A51A",
"L.	c #3CAB3F",
"M.	c #B4D9B4",
"N.	c #FDFEFD",
"O.	c #4F4F4F",
"P.	c #646464",
"Q.	c #777777",
"R.	c #A2A2A2",
"S.	c #C0C0E8",
"T.	c #666687",
"U.	c #EEEE4C",
"V.	c #474888",
"W.	c #052173",
"X.	c #2C443E",
"Y.	c #262D38",
"Z.	c #595EA2",
"`.	c #D2D3E7",
" +	c #A5A5A5",
".+	c #CFCFCF",
"++	c #CBCBCB",
"@+	c #DFE3EA",
"#+	c #4F6F71",
"$+	c #6DA43B",
"%+	c #184355",
"&+	c #0F3A62",
"*+	c #4C3947",
"=+	c #35413B",
"-+	c #426283",
";+	c #CFCFE7",
">+	c #B3B3B3",
",+	c #BABABA",
"'+	c #A0A0A0",
")+	c #47A248",
"!+	c #12A017",
"~+	c #0CCE0C",
"{+	c #03B00D",
"]+	c #0B9B10",
"^+	c #1D9509",
"/+	c #114405",
"(+	c #4E744E",
"_+	c #D9ECD9",
":+	c #808080",
"<+	c #C3C3C3",
"[+	c #7D7D7D",
"}+	c #C2C2C2",
"|+	c #747474",
"1+	c #ADADAD",
"2+	c #A8D3A8",
"3+	c #2DA32E",
"4+	c #15A615",
"5+	c #04A604",
"6+	c #05A605",
"7+	c #0C950C",
"8+	c #4EA14E",
"9+	c #76AB76",
"0+	c #C4E1C4",
"a+	c #676767",
"b+	c #E2E2E2",
"c+	c #9FCE9F",
"d+	c #A5D2A5",
"e+	c #8FC68F",
"f+	c #6BB46B",
"g+	c #74B974",
"h+	c #94CB94",
"i+	c #D5E9D5",
"j+	c #DADADA",
"k+	c #D3D3D3",
"l+	c #F1F1F1",
"m+	c #BEBEBE",
"n+	c #E6E6E6",
"o+	c #EDEDED",
"p+	c #8D8D8D",
"q+	c #868686",
"r+	c #929292",
"s+	c #6C6C6C",
"t+	c #8E8E8E",
"u+	c #F3F3F3",
"v+	c #EEEEEE",
"w+	c #F4F4F4",
"x+	c #E9E9E9",
"y+	c #ABABAB",
"z+	c #CECECE",
"A+	c #F0F0F0",
"B+	c #7A7A7A",
"C+	c #D9D9D9",
"D+	c #A9A9A9",
"E+	c #E7E7E7",
"F+	c #9C9C9C",
"G+	c #939393",
"                                                                                                ",
"  . + @ # $ % & * = - ; > , ' ) ! ~ { ] ^ / ( _ : < [ } | 1 2 3 4 5 6                           ",
"  7 8 9 0 a b c d e f g h i j i j i k l m n o p q q r s 1 t u v w x y                           ",
"  z A B C D E F G H I I J J K L M N O P O Q O R S T U + V W z X Y a Z                           ",
"  `  ...+.@.#.} $.$.%.2 2 2 2 2 2 2 # &.*.*.} &.&.&.&.&.&.&.&.&.&.=.X                           ",
"  -.Y ;.>.,.'.&.$.$.5 7 &.7 7 &.7 7 ).X !.~.` {.].4 s %.^.9 '.].@./.X                           ",
"  w {.5 (._.(._.(._.(._.(._.(._.(._.(._.(._.(._.(._.(._.(._.(._.(._.(._.(._.(._.                ",
"  -.:.<._.[.}.|.$.$.` w 2 w w 2 w 1.2 -.!.2.-.@.3.4./.} =.5.5.6._.7.X         (.                ",
"  w 3 8.(.t 3 s $.$.5 7 &.7 7 &.9.0.&.a.b.c.5 @.d.b.a.=.e./.#.f._.7.X         _.                ",
"  -.2 g._.-.} s $.$.2.h.-.h.h.5 i.j.-.4 ].*.{.@.k.g.l. .3. ._._._.7.X         (.                ",
"  ` @ m.(.<.n.|.$.$.` t o.8.p.j.q.r.2 -.s.t.5 @.6.u.v.w.x.y.z.A._.7.X         _.                ",
"  a.B.# _...*.=.$.$.h.C.D.E.7 &.7 7 &.a.*.|.{.@.F.G.H.I.J.K.L.M.N.7.X         (.                ",
"  a.h.O.(.P.(._.(._.(._.(._.(._.(._.(._.(._.(._.(._.(._.(._.(._.(._.(._.(._.(._.(._.            ",
"  7 ` 5 _.5 _.&.. $.C.Q.2 w w 2 w w 2 -.e.R.-.@.S.T.U.V.W.X.Y.Z.`.7.X         (.  (.            ",
"   +n.v (.@.(.R..+$.~.` &.&.&.&.&.&.&.2 ++++&.@.@+#+$+%+&+*+=+-+;+7.X         _.  _.            ",
"   +>+0 _.a._.7 /.$.B.t } #.,+w {.#.'+` ++++&.@.)+!+~+{+]+^+/+(+_+7.X         (.  (.            ",
"   +w :+(.<+(.w . $.e.[+n.}+a |+u 1+a 8 ++++&.@.2+3+4+5+6+7+8+9+0+7.X         _.  _.            ",
"   +w a+_.A._.5 2 $.B./.}+#./.@.s b+=.%.++++&.@.c+d+e+f+g+h+i+_._.7.X         (.  (.            ",
"   +w j.(.}+(.5 (._.(._.(._.(._.(._.(._.(._.(._.(._.(._.(._.(._.(._.(._.(._.(._.(._.(._.        ",
"   +w a+_.j+_.@ _.$.@.+.. k+++..%.#.} 2 ++++&.@.l+m+n+../.e.o+_._.7.X         (.  (.  (.        ",
"   +w p+(.l+(.h.(.$..+q+r+..s+u h.+.t+| ++++&.@.u+.+v+ .w+x+d._._.7.X         _.  _.  _.        ",
"   +|.t._.t _.h._.$.s 5 2.. 5 5 {.{.5 7 ++++&.@.o+y+k.z+b.A+2 _._.7.X         (.  (.  (.        ",
"   +|.B+(.C+(.w (.$.!.8 '.].-.-.s. +r+D+++++&.@.A.$.e.u+E+_._._._.7.X         _.  _.  _.        ",
"  2.2 .+_. ._.$._.(._.(._.(._.(._.(._.(._.(._.(._.(._.(._.(._.(._.(._.(._.(._.(._.(._.(._.      ",
"  @ F+F+(.F+(.E.(._.x x x x x x x x x x x x E.0 0 E.1 1 1 1 r+r+G+B ;.        _.  _.  _.(.      ",
"        _.  _.  _.(.                                                          (.  (.  (._.      ",
"        (.  (.  (._.                                                          _.  _.  _.(.      ",
"        _.  _.  _.(.                                                          (.  (.  (._.      ",
"        (.  (.  (._.                                                          _.  _.  _.(.      ",
"        _.  _.  _.(.                                                          (.  (.  (._.      ",
"        (._.(._.(._.(._.(._.(._.(._.(._.(._.(._.(._.(._.(._.(._.(._.(._.(._.(._.  _.  _.(.      ",
"            _.  _.(.                                                              (.  (._.      ",
"            (.  (._.                                                              _.  _.(.      ",
"            _.  _.(.                                                              (.  (._.      ",
"            (.  (._.                                                              _.  _.(.      ",
"            _.  _.(.                                                              (.  (._.      ",
"            (._.(._.(._.(._.(._.(._.(._.(._.(._.(._.(._.(._.(._.(._.(._.(._.(._.(._.  _.(.      ",
"                _.(.                                                                  (._.      ",
"                (._.                                                                  _.(.      ",
"                _.(.                                                                  (._.      ",
"                (._.                                                                  _.(.      ",
"                _.(.                                                                  (._.      ",
"                (._.(._.(._.(._.(._.(._.(._.(._.(._.(._.(._.(._.(._.(._.(._.(._.(._.(._.(.      ",
"                  (.                                                                    _.      ",
"                  _.                                                                    (.      ",
"                  (.                                                                    _.      ",
"                  _.                                                                    (.      ",
"                  (._.(._.(._.(._.(._.(._.(._.(._.(._.(._.(._.(._.(._.(._.(._.(._.(._.(._.      "};
